[gd_scene load_steps=3 format=2]

[ext_resource path="res://EverGreen/PMStateAndLoader.gd" type="Script" id=1]

[sub_resource type="GDScript" id=1]
script/source = "extends Resource

var state_ref: Node
var minus_load_percentage = 0.0

func go_to_previous_state():
    return \"#GoBack#\"

func on_ready():
    return state_ref.STATE_ID

func on_enter(_previous_state):
    PM.get_tree().root.get_node(\"Container/UI\").get_child(0).visible = false
    return state_ref.STATE_ID

func on_exit():
    PM.get_tree().root.get_node(\"Container/UI\").get_child(0).visible = true
    return
    
func on_state_trigger(new_value):
    var previous_state = PM.previous_state
    var next_state = state_ref.STATE_ID
    if new_value == \"Accept\":
        if previous_state == \"OfflineSettings\":
            next_state = \"OfflineSettings\"
        else:
            next_state = \"GameSetupOverview\"
    # Note: return go_to_previous_state()
    # Go to a transitionable State:  return state_ref.transitionable_states[0]
    return next_state
    
func on_cleanup():
    pass
    
func on_stage_loaded(_completed_stages, _total_stages, _file_name):
    pass

func on_resource_loaded(_completed_stages, _total_stages, _file_name, _resource):
    pass

func on_loading_complete():
    return state_ref.STATE_ID

func on_process_event(_delta):
    return state_ref.STATE_ID
    
func on_physics_process_event(_delta):
    return state_ref.STATE_ID

func on_input_event(_event):
    return state_ref.STATE_ID

func on_unhandled_input_event(_event):
    return state_ref.STATE_ID
"

[node name="PMStateAndLoader" type="Node"]
script = ExtResource( 1 )
STATE_ID = "ArmorySettings"
transitionable_states = [ "MainMenu" ]
my_screen_file = "res://scenes/MainScreens/ArmorySettings.tscn"
custom_event_overrides = SubResource( 1 )
