[gd_scene load_steps=3 format=2]

[ext_resource path="res://EverGreen/PMStateAndLoader.gd" type="Script" id=1]

[sub_resource type="GDScript" id=1]
script/source = "extends Resource

var state_ref: Node
var minus_load_percentage = 0.0

func on_ready():
    return state_ref.STATE_ID

func on_enter(_previous_state):
    return state_ref.STATE_ID

func on_exit():
    return
    
func on_state_trigger(_new_value):
    # Note: to go back to the previous state return \"#GoBack#\" as a string.
    return state_ref.STATE_ID
    
func on_cleanup():
    pass
    
func on_stage_loaded(_completed_stages, _total_stages, _file_name):
    pass

func on_resource_loaded(_completed_stages, _total_stages, _file_name, _resource):
    pass

func on_loading_complete():
    return state_ref.STATE_ID

func on_process_event(_delta):
    return state_ref.STATE_ID
    
func on_physics_process_event(_delta):
    return state_ref.STATE_ID

func on_input_event(_event):
    return state_ref.STATE_ID

func on_unhandled_input_event(_event):
    return state_ref.STATE_ID
"

[node name="PMStateAndLoader" type="Node"]
script = ExtResource( 1 )
STATE_ID = "MainMenu"
transitionable_states = [ "MainMenu" ]
my_screen_file = "res://scenes/MainMenu/MainMenu.tscn"
custom_event_overrides = SubResource( 1 )
