[gd_scene load_steps=3 format=2]

[ext_resource path="res://EverGreen/PMStateAndLoader.gd" type="Script" id=1]

[sub_resource type="GDScript" id=1]
script/source = "extends Resource

var state_ref: Node
var minus_load_percentage = 0.0

func go_to_previous_state():
    return \"#GoBack#\"

func on_ready():
    return state_ref.STATE_ID

func on_enter(_previous_state):
    return state_ref.STATE_ID

func on_exit():
    return
   
func on_state_trigger(new_value):
    var next_state = state_ref.STATE_ID
    if new_value == \"Join\":
        # EXTRACT game details:
        var GamesContainer = state_ref.my_screen_ref.get_node(
            \"CenterContainer/VBoxContainer/ScrollContainer/VBoxContainer/GamesContainer\"
        )
        var selected_game = null
        var matched_server = null
        for game in GamesContainer.get_children():
            if game.modulate == Color(\"34e21b\"):  # is selected.
                selected_game = game
                break
        if selected_game != null:
            for game_server in PM.STD.get_(\"udp_server_dict\"):
                var game_server_details = PM.STD.get_(\"udp_server_details_dict\")[game_server]
                if game_server_details[4] == selected_game.get_node(\"VBoxContainer/NameBtn\").text:
                    matched_server = game_server
        if matched_server != null:
            var game_server_details = PM.STD.get_(\"udp_server_details_dict\")[matched_server]
            if game_server_details[5]:
                PM.STD.set_(\"gps_required\", true)
            else:
                PM.STD.set_(\"gps_required\", false)
            PM.STD.set_(\"medic_type\", game_server_details[6])
            #FIXME: REMOVE THIS AFTER OBSERVER ROLE IS IMPLEMENTED, ALL OTHER STATE VARIABLE 
            # ROUTING CODE IN THIS SCRIPT IS COMPLETE FOR FUTURE OBSERVER IMPLEMENTATION
            if PM.STD.get_(\"is_observer\") == true: 
                next_state = \"Observer\"
            else:
                next_state = \"AwaitingHostPregame\"
            PM.STD.set_(\"server_ip\", game_server_details[1])
            PM.STD.set_(\"server_port\", game_server_details[2])
            PM.Networking.Client_Module.setup_as_client()
            return next_state
    if new_value == \"JoinDirect\":
        if PM.STD.get_(\"is_observer\") == true: 
            next_state = \"Observer\"
        else:
            next_state = \"AttemptingDirectConnect\"
        var host_ip = state_ref.my_screen_ref.get_node(
            \"DirectConnect/VBoxContainer/LineEdit\"
        ).text
        
        PM.STD.set_(\"server_ip\", host_ip)
        PM.STD.set_(\"server_port\", PM.Settings.NETWORK_LAN_PORT)
        PM.Networking.Client_Module.setup_as_client()
        return next_state
    if new_value == \"GoBack\":
        call_deferred(\"unload_and_then_change_state\")
        return state_ref.STATE_ID
    # Go to a transitionable State:  return state_ref.transitionable_states[0]
    return next_state
    
func on_cleanup():
    pass
    
func on_stage_loaded(_completed_stages, _total_stages, _file_name):
    pass

func on_resource_loaded(_completed_stages, _total_stages, _file_name, _resource):
    pass

func on_loading_complete():
    return state_ref.STATE_ID

func on_process_event(_delta):
    return state_ref.STATE_ID
    
func on_physics_process_event(_delta):
    return state_ref.STATE_ID

func on_input_event(_event):
    return state_ref.STATE_ID

func on_unhandled_input_event(_event):
    return state_ref.STATE_ID
    
func unload_and_then_change_state():
    # Unload Pregame, BlinkHexTris, and GameCommon
    PM.get_tree().root.get_node(\"Container/Scene1/Empty/GameCommon\").will_be_freed = true
    yield(PM.get_tree(), \"idle_frame\")
    PM.get_tree().root.get_node(\"Container/Scene1/Empty/GameCommon\").queue_free()
    PM.get_tree().root.get_node(\"Container/Scene1/Empty/PreGame\").queue_free()
    PM.get_tree().root.get_node(\"Container/Scene1/Empty/BlinkHexTris\").queue_free()
    PM.call_deferred(\"evaluate_state_change\", go_to_previous_state())
"

[node name="PMStateAndLoader" type="Node"]
script = ExtResource( 1 )
STATE_ID = "PreGameLobby"
transitionable_states = [ "AwaitingHostPregame", "Observer" ]
my_screen_file = "res://scenes/MainScreens/PreGameLobby.tscn"
other_screens_to_load = [ "res://scenes/InGame/GameModes/PreGame.tscn", "res://scenes/InGame/GameModes/GameCommon.tscn", "res://scenes/InGame/GameModes/BlinkHexTris.tscn" ]
custom_event_overrides = SubResource( 1 )
