[gd_scene load_steps=3 format=2]

[ext_resource path="res://EverGreen/PMStateAndLoader.gd" type="Script" id=1]

[sub_resource type="GDScript" id=1]
script/source = "extends Resource

var state_ref: Node
var minus_load_percentage = 0.0

func go_to_previous_state():
    return \"#GoBack#\"

func on_ready():
    return state_ref.STATE_ID

func on_enter(_previous_state):
    PM.Networking.Server_Module.setup_server_part1()
    return state_ref.STATE_ID

func on_exit():
    return
   
func on_state_trigger(new_value):
    var next_state = state_ref.STATE_ID
    if new_value == \"Continue\":
        PM.STD.set_(\"pregame_settings_completed\", true)
        PM.Networking.EventSync.record_event(\"sync_var\", {\"var_name\": 
            \"pregame_settings_completed\", \"var_val\": true}, 
            PM.Networking.get_server_time_usec()
        )
        next_state = \"PlayerNameEditor\"
    elif new_value == \"GoBack\":
        next_state = go_to_previous_state()
    # Go to a transitionable State:  return state_ref.transitionable_states[0]
    return next_state
    
func on_cleanup():
    pass
    
func on_stage_loaded(_completed_stages, _total_stages, _file_name):
    pass

func on_resource_loaded(_completed_stages, _total_stages, _file_name, _resource):
    pass

func on_loading_complete():
    PM.STD.set_(\"ProgramManager_state_trigger\", \"Continue\")
    return state_ref.STATE_ID

func on_process_event(_delta):
    return state_ref.STATE_ID
    
func on_physics_process_event(_delta):
    return state_ref.STATE_ID

func on_input_event(_event):
    return state_ref.STATE_ID

func on_unhandled_input_event(_event):
    return state_ref.STATE_ID
"

[node name="PMStateAndLoader" type="Node"]
script = ExtResource( 1 )
STATE_ID = "PreGameStart"
transitionable_states = [ "FineAccessLocationPermission", "PlayerNameEditor" ]
other_screens_to_load = [ "res://scenes/InGame/GameModes/PreGame.tscn", "res://scenes/InGame/GameModes/GameCommon.tscn", "res://scenes/InGame/GameModes/BlinkHexTris.tscn" ]
custom_event_overrides = SubResource( 1 )
