[gd_resource type="Resource" load_steps=2 format=2]

[ext_resource path="res://EverGreen/Networking/UDP_Module.gd" type="Script" id=1]

[resource]
resource_name = "UDP_Module"
script = ExtResource( 1 )
