; Engine configuration file.
; It's best edited using the editor UI and not directly,
; since the parameters that go here are not all obvious.
;
; Format:
;   [section] ; section goes between []
;   param=value ; assign values to parameters

config_version=4

_global_script_classes=[ {
"base": "GdUnitArgumentMatcher",
"class": "AnyArgumentMatcher",
"language": "GDScript",
"path": "res://addons/gdUnit3/src/matchers/AnyArgumentMatcher.gd"
}, {
"base": "GdUnitArgumentMatcher",
"class": "AnyBuildInTypeArgumentMatcher",
"language": "GDScript",
"path": "res://addons/gdUnit3/src/matchers/AnyBuildInTypeArgumentMatcher.gd"
}, {
"base": "GdUnitArgumentMatcher",
"class": "AnyClazzArgumentMatcher",
"language": "GDScript",
"path": "res://addons/gdUnit3/src/matchers/AnyClazzArgumentMatcher.gd"
}, {
"base": "ValueProvider",
"class": "CallBackValueProvider",
"language": "GDScript",
"path": "res://addons/gdUnit3/src/asserts/CallBackValueProvider.gd"
}, {
"base": "GdUnitArgumentMatcher",
"class": "ChainedArgumentMatcher",
"language": "GDScript",
"path": "res://addons/gdUnit3/src/matchers/ChainedArgumentMatcher.gd"
}, {
"base": "Resource",
"class": "Chance",
"language": "GDScript",
"path": "res://Logic/EverGreen/ECS/Systems/SuperSystems/RandomGenerator/Chance.gd"
}, {
"base": "Reference",
"class": "CmdArgumentParser",
"language": "GDScript",
"path": "res://addons/gdUnit3/src/cmd/CmdArgumentParser.gd"
}, {
"base": "Reference",
"class": "CmdCommand",
"language": "GDScript",
"path": "res://addons/gdUnit3/src/cmd/CmdCommand.gd"
}, {
"base": "Reference",
"class": "CmdCommandHandler",
"language": "GDScript",
"path": "res://addons/gdUnit3/src/cmd/CmdCommandHandler.gd"
}, {
"base": "Reference",
"class": "CmdConsole",
"language": "GDScript",
"path": "res://addons/gdUnit3/src/cmd/CmdConsole.gd"
}, {
"base": "Reference",
"class": "CmdOption",
"language": "GDScript",
"path": "res://addons/gdUnit3/src/cmd/CmdOption.gd"
}, {
"base": "Reference",
"class": "CmdOptions",
"language": "GDScript",
"path": "res://addons/gdUnit3/src/cmd/CmdOptions.gd"
}, {
"base": "Resource",
"class": "Comparator",
"language": "GDScript",
"path": "res://addons/gdUnit3/src/Comparator.gd"
}, {
"base": "ValueProvider",
"class": "DefaultValueProvider",
"language": "GDScript",
"path": "res://addons/gdUnit3/src/asserts/DefaultValueProvider.gd"
}, {
"base": "GdUnitArgumentMatcher",
"class": "EqualsArgumentMatcher",
"language": "GDScript",
"path": "res://addons/gdUnit3/src/matchers/EqualsArgumentMatcher.gd"
}, {
"base": "Reference",
"class": "Fonts",
"language": "GDScript",
"path": "res://addons/gdUnit3/src/ui/Fonts.gd"
}, {
"base": "Resource",
"class": "Fuzzer",
"language": "GDScript",
"path": "res://addons/gdUnit3/src/fuzzers/Fuzzer.gd"
}, {
"base": "Resource",
"class": "FuzzerTool",
"language": "GDScript",
"path": "res://addons/gdUnit3/src/fuzzers/FuzzerTool.gd"
}, {
"base": "Resource",
"class": "Fuzzers",
"language": "GDScript",
"path": "res://addons/gdUnit3/src/Fuzzers.gd"
}, {
"base": "Resource",
"class": "GdAssertMessages",
"language": "GDScript",
"path": "res://addons/gdUnit3/src/asserts/GdAssertMessages.gd"
}, {
"base": "Reference",
"class": "GdAssertReports",
"language": "GDScript",
"path": "res://addons/gdUnit3/src/asserts/GdAssertReports.gd"
}, {
"base": "Reference",
"class": "GdClassDescriptor",
"language": "GDScript",
"path": "res://addons/gdUnit3/src/core/parse/GdClassDescriptor.gd"
}, {
"base": "Reference",
"class": "GdDiffTool",
"language": "GDScript",
"path": "res://addons/gdUnit3/src/core/GdDiffTool.gd"
}, {
"base": "Reference",
"class": "GdFunctionArgument",
"language": "GDScript",
"path": "res://addons/gdUnit3/src/core/parse/GdFunctionArgument.gd"
}, {
"base": "Reference",
"class": "GdFunctionDescriptor",
"language": "GDScript",
"path": "res://addons/gdUnit3/src/core/parse/GdFunctionDescriptor.gd"
}, {
"base": "Reference",
"class": "GdFunctionDoubler",
"language": "GDScript",
"path": "res://addons/gdUnit3/src/core/GdFunctionDoubler.gd"
}, {
"base": "Node",
"class": "GdMarkDownReader",
"language": "GDScript",
"path": "res://addons/gdUnit3/src/update/GdMarkDownReader.gd"
}, {
"base": "Object",
"class": "GdObjects",
"language": "GDScript",
"path": "res://addons/gdUnit3/src/core/GdObjects.gd"
}, {
"base": "Reference",
"class": "GdScriptParser",
"language": "GDScript",
"path": "res://addons/gdUnit3/src/core/parse/GdScriptParser.gd"
}, {
"base": "Reference",
"class": "GdUnit3Version",
"language": "GDScript",
"path": "res://addons/gdUnit3/src/core/GdUnit3Version.gd"
}, {
"base": "Reference",
"class": "GdUnitArgumentMatcher",
"language": "GDScript",
"path": "res://addons/gdUnit3/src/matchers/GdUnitArgumentMatcher.gd"
}, {
"base": "Reference",
"class": "GdUnitArgumentMatchers",
"language": "GDScript",
"path": "res://addons/gdUnit3/src/matchers/GdUnitArgumentMatchers.gd"
}, {
"base": "GdUnitAssert",
"class": "GdUnitArrayAssert",
"language": "GDScript",
"path": "res://addons/gdUnit3/src/GdUnitArrayAssert.gd"
}, {
"base": "GdUnitArrayAssert",
"class": "GdUnitArrayAssertImpl",
"language": "GDScript",
"path": "res://addons/gdUnit3/src/asserts/GdUnitArrayAssertImpl.gd"
}, {
"base": "Reference",
"class": "GdUnitAssert",
"language": "GDScript",
"path": "res://addons/gdUnit3/src/GdUnitAssert.gd"
}, {
"base": "GdUnitAssert",
"class": "GdUnitAssertImpl",
"language": "GDScript",
"path": "res://addons/gdUnit3/src/asserts/GdUnitAssertImpl.gd"
}, {
"base": "Reference",
"class": "GdUnitAwaiter",
"language": "GDScript",
"path": "res://addons/gdUnit3/src/GdUnitAwaiter.gd"
}, {
"base": "GdUnitAssert",
"class": "GdUnitBoolAssert",
"language": "GDScript",
"path": "res://addons/gdUnit3/src/GdUnitBoolAssert.gd"
}, {
"base": "GdUnitBoolAssert",
"class": "GdUnitBoolAssertImpl",
"language": "GDScript",
"path": "res://addons/gdUnit3/src/asserts/GdUnitBoolAssertImpl.gd"
}, {
"base": "GdUnitReportSummary",
"class": "GdUnitByPathReport",
"language": "GDScript",
"path": "res://addons/gdUnit3/src/report/GdUnitByPathReport.gd"
}, {
"base": "Reference",
"class": "GdUnitClassDoubler",
"language": "GDScript",
"path": "res://addons/gdUnit3/src/core/GdUnitClassDoubler.gd"
}, {
"base": "Reference",
"class": "GdUnitConstants",
"language": "GDScript",
"path": "res://addons/gdUnit3/src/GdUnitConstants.gd"
}, {
"base": "GdUnitAssert",
"class": "GdUnitDictionaryAssert",
"language": "GDScript",
"path": "res://addons/gdUnit3/src/GdUnitDictionaryAssert.gd"
}, {
"base": "GdUnitDictionaryAssert",
"class": "GdUnitDictionaryAssertImpl",
"language": "GDScript",
"path": "res://addons/gdUnit3/src/asserts/GdUnitDictionaryAssertImpl.gd"
}, {
"base": "Resource",
"class": "GdUnitEvent",
"language": "GDScript",
"path": "res://addons/gdUnit3/src/core/event/GdUnitEvent.gd"
}, {
"base": "Node",
"class": "GdUnitExecutor",
"language": "GDScript",
"path": "res://addons/gdUnit3/src/core/GdUnitExecutor.gd"
}, {
"base": "GdUnitAssert",
"class": "GdUnitFileAssert",
"language": "GDScript",
"path": "res://addons/gdUnit3/src/GdUnitFileAssert.gd"
}, {
"base": "GdUnitFileAssert",
"class": "GdUnitFileAssertImpl",
"language": "GDScript",
"path": "res://addons/gdUnit3/src/asserts/GdUnitFileAssertImpl.gd"
}, {
"base": "GdUnitAssert",
"class": "GdUnitFloatAssert",
"language": "GDScript",
"path": "res://addons/gdUnit3/src/GdUnitFloatAssert.gd"
}, {
"base": "GdUnitFloatAssert",
"class": "GdUnitFloatAssertImpl",
"language": "GDScript",
"path": "res://addons/gdUnit3/src/asserts/GdUnitFloatAssertImpl.gd"
}, {
"base": "GdUnitAssert",
"class": "GdUnitFuncAssert",
"language": "GDScript",
"path": "res://addons/gdUnit3/src/GdUnitFuncAssert.gd"
}, {
"base": "GdUnitFuncAssert",
"class": "GdUnitFuncAssertImpl",
"language": "GDScript",
"path": "res://addons/gdUnit3/src/asserts/GdUnitFuncAssertImpl.gd"
}, {
"base": "GdUnitValueExtractor",
"class": "GdUnitFuncValueExtractor",
"language": "GDScript",
"path": "res://addons/gdUnit3/src/extractors/GdUnitFuncValueExtractor.gd"
}, {
"base": "Reference",
"class": "GdUnitHtmlPatterns",
"language": "GDScript",
"path": "res://addons/gdUnit3/src/report/GdUnitHtmlPatterns.gd"
}, {
"base": "GdUnitReportSummary",
"class": "GdUnitHtmlReport",
"language": "GDScript",
"path": "res://addons/gdUnit3/src/report/GdUnitHtmlReport.gd"
}, {
"base": "GdUnitEvent",
"class": "GdUnitInit",
"language": "GDScript",
"path": "res://addons/gdUnit3/src/core/event/GdUnitEventInit.gd"
}, {
"base": "Panel",
"class": "GdUnitInspecor",
"language": "GDScript",
"path": "res://addons/gdUnit3/src/ui/GdUnitInspector.gd"
}, {
"base": "GdUnitAssert",
"class": "GdUnitIntAssert",
"language": "GDScript",
"path": "res://addons/gdUnit3/src/GdUnitIntAssert.gd"
}, {
"base": "GdUnitIntAssert",
"class": "GdUnitIntAssertImpl",
"language": "GDScript",
"path": "res://addons/gdUnit3/src/asserts/GdUnitIntAssertImpl.gd"
}, {
"base": "GdUnitMonitor",
"class": "GdUnitMemMonitor",
"language": "GDScript",
"path": "res://addons/gdUnit3/src/monitor/GdUnitMemMonitor.gd"
}, {
"base": "Node",
"class": "GdUnitMemoryPool",
"language": "GDScript",
"path": "res://addons/gdUnit3/src/core/GdUnitMemoryPool.gd"
}, {
"base": "Reference",
"class": "GdUnitMock",
"language": "GDScript",
"path": "res://addons/gdUnit3/src/mocking/GdUnitMock.gd"
}, {
"base": "GdUnitClassDoubler",
"class": "GdUnitMockBuilder",
"language": "GDScript",
"path": "res://addons/gdUnit3/src/mocking/GdUnitMockBuilder.gd"
}, {
"base": "Reference",
"class": "GdUnitMockImpl",
"language": "GDScript",
"path": "res://addons/gdUnit3/src/mocking/GdUnitMockImpl.gd"
}, {
"base": "Resource",
"class": "GdUnitMonitor",
"language": "GDScript",
"path": "res://addons/gdUnit3/src/monitor/GdUnitMonitor.gd"
}, {
"base": "GdUnitAssert",
"class": "GdUnitObjectAssert",
"language": "GDScript",
"path": "res://addons/gdUnit3/src/GdUnitObjectAssert.gd"
}, {
"base": "GdUnitObjectAssert",
"class": "GdUnitObjectAssertImpl",
"language": "GDScript",
"path": "res://addons/gdUnit3/src/asserts/GdUnitObjectAssertImpl.gd"
}, {
"base": "Reference",
"class": "GdUnitObjectInteractions",
"language": "GDScript",
"path": "res://addons/gdUnit3/src/core/GdUnitObjectInteractions.gd"
}, {
"base": "Reference",
"class": "GdUnitObjectInteractionsTemplate",
"language": "GDScript",
"path": "res://addons/gdUnit3/src/core/GdUnitObjectInteractionsTemplate.gd"
}, {
"base": "Reference",
"class": "GdUnitPatch",
"language": "GDScript",
"path": "res://addons/gdUnit3/src/update/GdUnitPatch.gd"
}, {
"base": "Reference",
"class": "GdUnitPatcher",
"language": "GDScript",
"path": "res://addons/gdUnit3/src/update/GdUnitPatcher.gd"
}, {
"base": "Reference",
"class": "GdUnitProperty",
"language": "GDScript",
"path": "res://addons/gdUnit3/src/core/GdUnitProperty.gd"
}, {
"base": "Resource",
"class": "GdUnitReport",
"language": "GDScript",
"path": "res://addons/gdUnit3/src/core/report/GdUnitReport.gd"
}, {
"base": "GdUnitReportConsumer",
"class": "GdUnitReportCollector",
"language": "GDScript",
"path": "res://addons/gdUnit3/src/core/report/GdUnitReportCollector.gd"
}, {
"base": "Reference",
"class": "GdUnitReportConsumer",
"language": "GDScript",
"path": "res://addons/gdUnit3/src/core/report/GdUnitReportConsumer.gd"
}, {
"base": "Reference",
"class": "GdUnitReportSummary",
"language": "GDScript",
"path": "res://addons/gdUnit3/src/report/GdUnitReportSummary.gd"
}, {
"base": "Resource",
"class": "GdUnitResourceDto",
"language": "GDScript",
"path": "res://addons/gdUnit3/src/network/rpc/dtos/GdUnitResourceDto.gd"
}, {
"base": "GdUnitAssert",
"class": "GdUnitResultAssert",
"language": "GDScript",
"path": "res://addons/gdUnit3/src/GdUnitResultAssert.gd"
}, {
"base": "GdUnitResultAssert",
"class": "GdUnitResultAssertImpl",
"language": "GDScript",
"path": "res://addons/gdUnit3/src/asserts/GdUnitResultAssertImpl.gd"
}, {
"base": "Resource",
"class": "GdUnitRunnerConfig",
"language": "GDScript",
"path": "res://addons/gdUnit3/src/core/GdUnitRunnerConfig.gd"
}, {
"base": "Node",
"class": "GdUnitSceneRunner",
"language": "GDScript",
"path": "res://addons/gdUnit3/src/GdUnitSceneRunner.gd"
}, {
"base": "GdUnitSceneRunner",
"class": "GdUnitSceneRunnerImpl",
"language": "GDScript",
"path": "res://addons/gdUnit3/src/core/GdUnitSceneRunnerImpl.gd"
}, {
"base": "Reference",
"class": "GdUnitScriptType",
"language": "GDScript",
"path": "res://addons/gdUnit3/src/core/GdUnitScriptType.gd"
}, {
"base": "Reference",
"class": "GdUnitServerConstants",
"language": "GDScript",
"path": "res://addons/gdUnit3/src/network/GdUnitServerConstants.gd"
}, {
"base": "Reference",
"class": "GdUnitSettings",
"language": "GDScript",
"path": "res://addons/gdUnit3/src/core/GdUnitSettings.gd"
}, {
"base": "GdUnitAssert",
"class": "GdUnitSignalAssert",
"language": "GDScript",
"path": "res://addons/gdUnit3/src/GdUnitSignalAssert.gd"
}, {
"base": "GdUnitSignalAssert",
"class": "GdUnitSignalAssertImpl",
"language": "GDScript",
"path": "res://addons/gdUnit3/src/asserts/GdUnitSignalAssertImpl.gd"
}, {
"base": "Reference",
"class": "GdUnitSignalAwaiter",
"language": "GDScript",
"path": "res://addons/gdUnit3/src/core/GdUnitSignalAwaiter.gd"
}, {
"base": "Resource",
"class": "GdUnitSingleton",
"language": "GDScript",
"path": "res://addons/gdUnit3/src/core/GdUnitSingleton.gd"
}, {
"base": "GdUnitClassDoubler",
"class": "GdUnitSpyBuilder",
"language": "GDScript",
"path": "res://addons/gdUnit3/src/spy/GdUnitSpyBuilder.gd"
}, {
"base": "Reference",
"class": "GdUnitSpyImpl",
"language": "GDScript",
"path": "res://addons/gdUnit3/src/spy/GdUnitSpyImpl.gd"
}, {
"base": "GdUnitEvent",
"class": "GdUnitStop",
"language": "GDScript",
"path": "res://addons/gdUnit3/src/core/event/GdUnitEventStop.gd"
}, {
"base": "GdUnitAssert",
"class": "GdUnitStringAssert",
"language": "GDScript",
"path": "res://addons/gdUnit3/src/GdUnitStringAssert.gd"
}, {
"base": "GdUnitStringAssert",
"class": "GdUnitStringAssertImpl",
"language": "GDScript",
"path": "res://addons/gdUnit3/src/asserts/GdUnitStringAssertImpl.gd"
}, {
"base": "Reference",
"class": "GdUnitTask",
"language": "GDScript",
"path": "res://addons/gdUnit3/src/network/GdUnitTask.gd"
}, {
"base": "Node",
"class": "GdUnitTcpClient",
"language": "GDScript",
"path": "res://addons/gdUnit3/src/network/GdUnitTcpClient.gd"
}, {
"base": "Node",
"class": "GdUnitTcpServer",
"language": "GDScript",
"path": "res://addons/gdUnit3/src/network/GdUnitTcpServer.gd"
}, {
"base": "GdUnitResourceDto",
"class": "GdUnitTestCaseDto",
"language": "GDScript",
"path": "res://addons/gdUnit3/src/network/rpc/dtos/GdUnitTestCaseDto.gd"
}, {
"base": "GdUnitReportSummary",
"class": "GdUnitTestCaseReport",
"language": "GDScript",
"path": "res://addons/gdUnit3/src/report/GdUnitTestCaseReport.gd"
}, {
"base": "Node",
"class": "GdUnitTestSuite",
"language": "GDScript",
"path": "res://addons/gdUnit3/src/GdUnitTestSuite.gd"
}, {
"base": "Resource",
"class": "GdUnitTestSuiteBuilder",
"language": "GDScript",
"path": "res://addons/gdUnit3/src/core/GdUnitTestSuiteBuilder.gd"
}, {
"base": "Reference",
"class": "GdUnitTestSuiteDefaultTemplate",
"language": "GDScript",
"path": "res://addons/gdUnit3/src/core/templates/test_suite/GdUnitTestSuiteDefaultTemplate.gd"
}, {
"base": "GdUnitResourceDto",
"class": "GdUnitTestSuiteDto",
"language": "GDScript",
"path": "res://addons/gdUnit3/src/network/rpc/dtos/GdUnitTestSuiteDto.gd"
}, {
"base": "GdUnitReportSummary",
"class": "GdUnitTestSuiteReport",
"language": "GDScript",
"path": "res://addons/gdUnit3/src/report/GdUnitTestSuiteReport.gd"
}, {
"base": "Reference",
"class": "GdUnitTestSuiteTemplate",
"language": "GDScript",
"path": "res://addons/gdUnit3/src/core/templates/test_suite/GdUnitTestSuiteTemplate.gd"
}, {
"base": "Resource",
"class": "GdUnitTools",
"language": "GDScript",
"path": "res://addons/gdUnit3/src/core/GdUnitTools.gd"
}, {
"base": "Reference",
"class": "GdUnitTuple",
"language": "GDScript",
"path": "res://addons/gdUnit3/src/GdUnitTuple.gd"
}, {
"base": "WindowDialog",
"class": "GdUnitUpdate",
"language": "GDScript",
"path": "res://addons/gdUnit3/src/update/GdUnitUpdate.gd"
}, {
"base": "Node",
"class": "GdUnitUpdateClient",
"language": "GDScript",
"path": "res://addons/gdUnit3/src/update/GdUnitUpdateClient.gd"
}, {
"base": "Reference",
"class": "GdUnitValueExtractor",
"language": "GDScript",
"path": "res://addons/gdUnit3/src/GdUnitValueExtractor.gd"
}, {
"base": "GdUnitAssert",
"class": "GdUnitVector2Assert",
"language": "GDScript",
"path": "res://addons/gdUnit3/src/GdUnitVector2Assert.gd"
}, {
"base": "GdUnitVector2Assert",
"class": "GdUnitVector2AssertImpl",
"language": "GDScript",
"path": "res://addons/gdUnit3/src/asserts/GdUnitVector2AssertImpl.gd"
}, {
"base": "GdUnitAssert",
"class": "GdUnitVector3Assert",
"language": "GDScript",
"path": "res://addons/gdUnit3/src/GdUnitVector3Assert.gd"
}, {
"base": "GdUnitVector3Assert",
"class": "GdUnitVector3AssertImpl",
"language": "GDScript",
"path": "res://addons/gdUnit3/src/asserts/GdUnitVector3AssertImpl.gd"
}, {
"base": "GdUnitMonitor",
"class": "GodotGdErrorMonitor",
"language": "GDScript",
"path": "res://addons/gdUnit3/src/monitor/GodotGdErrorMonitor.gd"
}, {
"base": "Fuzzer",
"class": "IntFuzzer",
"language": "GDScript",
"path": "res://addons/gdUnit3/src/fuzzers/IntFuzzer.gd"
}, {
"base": "Reference",
"class": "JUnitXmlReport",
"language": "GDScript",
"path": "res://addons/gdUnit3/src/report/JUnitXmlReport.gd"
}, {
"base": "Resource",
"class": "LocalTime",
"language": "GDScript",
"path": "res://addons/gdUnit3/src/core/LocalTime.gd"
}, {
"base": "Reference",
"class": "RPC",
"language": "GDScript",
"path": "res://addons/gdUnit3/src/network/rpc/RPC.gd"
}, {
"base": "RPC",
"class": "RPCClientConnect",
"language": "GDScript",
"path": "res://addons/gdUnit3/src/network/rpc/RPCClientConnect.gd"
}, {
"base": "RPC",
"class": "RPCClientDisconnect",
"language": "GDScript",
"path": "res://addons/gdUnit3/src/network/rpc/RPCClientDisconnect.gd"
}, {
"base": "RPC",
"class": "RPCData",
"language": "GDScript",
"path": "res://addons/gdUnit3/src/network/rpc/RPCData.gd"
}, {
"base": "RPC",
"class": "RPCGdUnitEvent",
"language": "GDScript",
"path": "res://addons/gdUnit3/src/network/rpc/RPCGdUnitEvent.gd"
}, {
"base": "RPC",
"class": "RPCGdUnitTestSuite",
"language": "GDScript",
"path": "res://addons/gdUnit3/src/network/rpc/RPCGdUnitTestSuite.gd"
}, {
"base": "RPC",
"class": "RPCMessage",
"language": "GDScript",
"path": "res://addons/gdUnit3/src/network/rpc/RPCMessage.gd"
}, {
"base": "Reference",
"class": "Result",
"language": "GDScript",
"path": "res://addons/gdUnit3/src/core/Result.gd"
}, {
"base": "RichTextEffect",
"class": "RichTextEffectBackground",
"language": "GDScript",
"path": "res://addons/gdUnit3/src/ui/parts/RichTextEffectBackground.gd"
}, {
"base": "RichTextLabel",
"class": "RichTextLabelExt",
"language": "GDScript",
"path": "res://addons/gdUnit3/src/ui/parts/RichTextLabelExt.gd"
}, {
"base": "Resource",
"class": "SignalHandler",
"language": "GDScript",
"path": "res://addons/gdUnit3/src/core/event/SignalHandler.gd"
}, {
"base": "Fuzzer",
"class": "StringFuzzer",
"language": "GDScript",
"path": "res://addons/gdUnit3/src/fuzzers/StringFuzzer.gd"
}, {
"base": "Resource",
"class": "TimeUnit",
"language": "GDScript",
"path": "res://addons/gdUnit3/src/core/TimeUnit.gd"
}, {
"base": "Reference",
"class": "ValueProvider",
"language": "GDScript",
"path": "res://addons/gdUnit3/src/asserts/ValueProvider.gd"
}, {
"base": "Fuzzer",
"class": "Vector2Fuzzer",
"language": "GDScript",
"path": "res://addons/gdUnit3/src/fuzzers/Vector2Fuzzer.gd"
}, {
"base": "Fuzzer",
"class": "Vector3Fuzzer",
"language": "GDScript",
"path": "res://addons/gdUnit3/src/fuzzers/Vector3Fuzzer.gd"
}, {
"base": "Reference",
"class": "XmlElement",
"language": "GDScript",
"path": "res://addons/gdUnit3/src/report/XmlElement.gd"
}, {
"base": "Node",
"class": "_TestCase",
"language": "GDScript",
"path": "res://addons/gdUnit3/src/core/_TestCase.gd"
}, {
"base": "Node",
"class": "_TestSuiteScanner",
"language": "GDScript",
"path": "res://addons/gdUnit3/src/core/_TestSuiteScanner.gd"
} ]
_global_script_class_icons={
"AnyArgumentMatcher": "",
"AnyBuildInTypeArgumentMatcher": "",
"AnyClazzArgumentMatcher": "",
"CallBackValueProvider": "",
"ChainedArgumentMatcher": "",
"Chance": "",
"CmdArgumentParser": "",
"CmdCommand": "",
"CmdCommandHandler": "",
"CmdConsole": "",
"CmdOption": "",
"CmdOptions": "",
"Comparator": "",
"DefaultValueProvider": "",
"EqualsArgumentMatcher": "",
"Fonts": "",
"Fuzzer": "",
"FuzzerTool": "",
"Fuzzers": "",
"GdAssertMessages": "",
"GdAssertReports": "",
"GdClassDescriptor": "",
"GdDiffTool": "",
"GdFunctionArgument": "",
"GdFunctionDescriptor": "",
"GdFunctionDoubler": "",
"GdMarkDownReader": "",
"GdObjects": "",
"GdScriptParser": "",
"GdUnit3Version": "",
"GdUnitArgumentMatcher": "",
"GdUnitArgumentMatchers": "",
"GdUnitArrayAssert": "",
"GdUnitArrayAssertImpl": "",
"GdUnitAssert": "",
"GdUnitAssertImpl": "",
"GdUnitAwaiter": "",
"GdUnitBoolAssert": "",
"GdUnitBoolAssertImpl": "",
"GdUnitByPathReport": "",
"GdUnitClassDoubler": "",
"GdUnitConstants": "",
"GdUnitDictionaryAssert": "",
"GdUnitDictionaryAssertImpl": "",
"GdUnitEvent": "",
"GdUnitExecutor": "",
"GdUnitFileAssert": "",
"GdUnitFileAssertImpl": "",
"GdUnitFloatAssert": "",
"GdUnitFloatAssertImpl": "",
"GdUnitFuncAssert": "",
"GdUnitFuncAssertImpl": "",
"GdUnitFuncValueExtractor": "",
"GdUnitHtmlPatterns": "",
"GdUnitHtmlReport": "",
"GdUnitInit": "",
"GdUnitInspecor": "",
"GdUnitIntAssert": "",
"GdUnitIntAssertImpl": "",
"GdUnitMemMonitor": "",
"GdUnitMemoryPool": "",
"GdUnitMock": "",
"GdUnitMockBuilder": "",
"GdUnitMockImpl": "",
"GdUnitMonitor": "",
"GdUnitObjectAssert": "",
"GdUnitObjectAssertImpl": "",
"GdUnitObjectInteractions": "",
"GdUnitObjectInteractionsTemplate": "",
"GdUnitPatch": "",
"GdUnitPatcher": "",
"GdUnitProperty": "",
"GdUnitReport": "",
"GdUnitReportCollector": "",
"GdUnitReportConsumer": "",
"GdUnitReportSummary": "",
"GdUnitResourceDto": "",
"GdUnitResultAssert": "",
"GdUnitResultAssertImpl": "",
"GdUnitRunnerConfig": "",
"GdUnitSceneRunner": "",
"GdUnitSceneRunnerImpl": "",
"GdUnitScriptType": "",
"GdUnitServerConstants": "",
"GdUnitSettings": "",
"GdUnitSignalAssert": "",
"GdUnitSignalAssertImpl": "",
"GdUnitSignalAwaiter": "",
"GdUnitSingleton": "",
"GdUnitSpyBuilder": "",
"GdUnitSpyImpl": "",
"GdUnitStop": "",
"GdUnitStringAssert": "",
"GdUnitStringAssertImpl": "",
"GdUnitTask": "",
"GdUnitTcpClient": "",
"GdUnitTcpServer": "",
"GdUnitTestCaseDto": "",
"GdUnitTestCaseReport": "",
"GdUnitTestSuite": "",
"GdUnitTestSuiteBuilder": "",
"GdUnitTestSuiteDefaultTemplate": "",
"GdUnitTestSuiteDto": "",
"GdUnitTestSuiteReport": "",
"GdUnitTestSuiteTemplate": "",
"GdUnitTools": "",
"GdUnitTuple": "",
"GdUnitUpdate": "",
"GdUnitUpdateClient": "",
"GdUnitValueExtractor": "",
"GdUnitVector2Assert": "",
"GdUnitVector2AssertImpl": "",
"GdUnitVector3Assert": "",
"GdUnitVector3AssertImpl": "",
"GodotGdErrorMonitor": "",
"IntFuzzer": "",
"JUnitXmlReport": "",
"LocalTime": "",
"RPC": "",
"RPCClientConnect": "",
"RPCClientDisconnect": "",
"RPCData": "",
"RPCGdUnitEvent": "",
"RPCGdUnitTestSuite": "",
"RPCMessage": "",
"Result": "",
"RichTextEffectBackground": "",
"RichTextLabelExt": "",
"SignalHandler": "",
"StringFuzzer": "",
"TimeUnit": "",
"ValueProvider": "",
"Vector2Fuzzer": "",
"Vector3Fuzzer": "",
"XmlElement": "",
"_TestCase": "",
"_TestSuiteScanner": ""
}

[WAT]

Test_Directory="res://tests"
Results_Directory="res://tests"
Test_Metadata_Directory="res://tests"
Tags=PoolStringArray(  )
Window_Size=Vector2( 1280, 720 )
Minimize_Window_When_Running_Tests=false
Port=6008
Default_Launch=0
Run_All_Tests=Object(InputEventKey,"resource_local_to_scene":false,"resource_name":"","device":0,"alt":false,"shift":false,"control":false,"meta":false,"command":false,"pressed":false,"scancode":0,"physical_scancode":0,"unicode":0,"echo":false,"script":null)

Auto_Refresh_Tests=false
Display=8

[application]

config/name="FreecoiL Gen2"
config/description="Bringing the game to the world! For the Recoil laser tag system."
run/main_scene="res://scenes/Global/Container/TheContainer.tscn"
run/flush_stdout_on_print.debug=false
boot_splash/image="res://assets/images/boot_splash.png"
boot_splash/bg_color=Color( 0, 0, 0, 1 )
config/icon="res://assets/images/logos/Freecoil_app_icon.png"
config/windows_native_icon="res://assets/images/logos/Freecoil.ico"

[audio]

enable_audio_input=true

[autoload]

PM="*res://EverGreen/ProgramManager.tscn"

[debug]

settings/fps/force_fps=240
gdscript/completion/autocomplete_setters_and_getters=true
gdscript/warnings/unsafe_cast=true
gdscript/warnings/unsafe_call_argument=true

[display]

window/size/width=540
window/size/height=960
window/size/resizable=false
window/vsync/use_vsync=false
window/handheld/orientation="portrait"
window/stretch/mode="viewport"
window/stretch/aspect="keep_width"

[editor_plugins]

enabled=PoolStringArray( "res://addons/Todo_Manager/plugin.cfg", "res://addons/gdUnit3/plugin.cfg", "res://addons/gut/plugin.cfg", "res://addons/regular_polygon2d_node/plugin.cfg" )

[logging]

file_logging/enable_file_logging=true

[memory]

limits/message_queue/max_size_kb=8192

[network]

limits/debugger_stdout/max_chars_per_second=20480
limits/debugger_stdout/max_messages_per_frame=100

[rendering]

quality/driver/driver_name="GLES2"
vram_compression/import_etc=true
vram_compression/import_etc2=false
environment/default_clear_color=Color( 0, 0, 0, 1 )
quality/dynamic_fonts/use_oversampling=false
