[gd_scene load_steps=2 format=2]

[ext_resource path="res://assets/themes/default.tres" type="Theme" id=4]

[node name="NotImplementedYet" type="ReferenceRect"]
margin_right = 540.0
margin_bottom = 960.0
rect_min_size = Vector2( 540, 960 )
theme = ExtResource( 4 )
__meta__ = {
"_edit_use_anchors_": false,
"_editor_description_": "0,0"
}

[node name="CenterContainer" type="CenterContainer" parent="."]
margin_top = 170.0
margin_right = 540.0
margin_bottom = 960.0
rect_min_size = Vector2( 540, 790 )
__meta__ = {
"_edit_use_anchors_": false
}

[node name="VBoxContainer" type="VBoxContainer" parent="CenterContainer"]
margin_right = 540.0
margin_bottom = 790.0
rect_min_size = Vector2( 540, 790 )
size_flags_vertical = 0
custom_constants/separation = 30

[node name="Label" type="Label" parent="CenterContainer/VBoxContainer"]
margin_right = 540.0
margin_bottom = 183.0
text = "This Functionality Has Not Been Implemented Yet.

Sorry.

Hopefully Coming Soon"
align = 1
autowrap = true

[node name="HBoxContainer" type="HBoxContainer" parent="CenterContainer/VBoxContainer"]
margin_top = 213.0
margin_right = 540.0
margin_bottom = 241.0
custom_constants/separation = 8
alignment = 1

[node name="Exit" type="Button" parent="CenterContainer/VBoxContainer/HBoxContainer"]
margin_left = 9.0
margin_right = 211.0
margin_bottom = 28.0
text = " Exit Application "

[node name="Label" type="Label" parent="CenterContainer/VBoxContainer/HBoxContainer"]
margin_left = 219.0
margin_right = 269.0
margin_bottom = 28.0
text = "OR"

[node name="Restart" type="Button" parent="CenterContainer/VBoxContainer/HBoxContainer"]
margin_left = 277.0
margin_right = 531.0
margin_bottom = 28.0
text = " Restart Application "
