[gd_resource type="Resource" load_steps=2 format=2]

[ext_resource path="res://EverGreen/ECS/Composites/Cameras/HoverCamera/HoverCamera.gd" type="Script" id=1]

[resource]
script = ExtResource( 1 )
invert_look_up_down = false
invert_look_left_right = false
mouse_sensitivity = Vector2( 0.1, 0.1 )
gamepad_sensitivity = Vector2( 1.7, 1.7 )
